{

    "cors": {
        "origin": "*",
        "optionsSuccessStatus": 200
    },
    "express": {
        "trust_proxy": 1
    },
    "server": {
        "type": "http",
        "ip-mask": "0.0.0.0",
        "port": 5555
    },
    "body-parser": {
        "extended": false
    },
    "defaultMessage": "Common Server default response! Please set up your routes."
}
